Log file created at: Mon Jan 23 00:42:23 2017
Time taken 28.947482 to render sphere11.ppm
Time taken 28.510720 to render sphere15.ppm
Time taken 29.320925 to render sphere2.ppm
Time taken 29.354573 to render sphere6.ppm
Time taken 28.718478 to render sphere14.ppm
Time taken 27.737112 to render sphere19.ppm
Time taken 29.342844 to render sphere7.ppm
Time taken 29.451733 to render sphere3.ppm
Time taken 28.072518 to render sphere18.ppm
Time taken 29.257040 to render sphere10.ppm
Time taken 27.183451 to render sphere22.ppm
Time taken 27.387198 to render sphere23.ppm
Time taken 30.983795 to render sphere4.ppm
Time taken 26.770722 to render sphere27.ppm
Time taken 30.488135 to render sphere16.ppm
Time taken 31.644802 to render sphere1.ppm
Time taken 31.421908 to render sphere9.ppm
Time taken 31.642404 to render sphere5.ppm
Time taken 31.131004 to render sphere13.ppm
Time taken 31.697782 to render sphere0.ppm
Time taken 27.524528 to render sphere26.ppm
Time taken 31.285306 to render sphere12.ppm
Time taken 31.655589 to render sphere8.ppm
Time taken 30.747554 to render sphere17.ppm
Time taken 29.873312 to render sphere21.ppm
Time taken 30.397996 to render sphere20.ppm
Time taken 29.218398 to render sphere24.ppm
Time taken 28.852541 to render sphere25.ppm
Time taken 27.658484 to render sphere28.ppm
Time taken 27.126881 to render sphere29.ppm
Execution finished at: Mon Jan 23 00:42:56 2017
